Take-home Exercise 1 – ISSS608-VAA
…
Show the code

stu_data_labeled <- stu_data_labeled %>%
  mutate(InfuenceF_Friends = recode(as.character(InfuenceF_Friends), "1"="Not at all", "2"="Little", "3"="Moderate", "4"="Quite", "5"="Very")
  )

Check for Duplicates

Using the duplicated function.we see that there are 22 duplicate entries in the data.

Show the code

stu_data[duplicated(stu_data),]

# A tibble: 226 × 22
    Year Gender Policy_Stu Minority_Stu Poor_Stu Father_Edu Mother_Edu
   <dbl>  <dbl>      <dbl>        <dbl>    <dbl>      <dbl>      <dbl>
 1     5      2          2            2        2          5          5
 2     5      1          2            2        2          5          5
 3     5      1          2            2        2          3          3
 4     5      2          2            2        2          4          3
 5     5      2          2            2        2          3          3
 6     5      2          2            2        2          6          6
 7     5      2          2            2        2          5          5
 8     5      2          2            2        2          5          5
 9     5      2          2            2        2          5          5
10     5      2          1            2        2          4          3
# ℹ 216 more rows
# ℹ 15 more variables: Father_Occupation <dbl>, Mother_Occupation <dbl>,
#   Time_Friends <dbl>, Time_SocicalMedia <dbl>, Time_Studying <dbl>,
#   GPA <dbl>, Adapt_Learning_Uni <dbl>, Study_Methods <dbl>,
#   SupportOf_Uni <dbl>, SupportOf_Lec <dbl>, Facilitie_Uni <dbl>,
#   Quality_Lecturer <dbl>, TrainingCurriculum <dbl>, Competitive_Class <dbl>,
#   InfuenceF_Friends <dbl>
…
